STAT 333 Project Two
…
  #transform all count of words to portion of text
  if(portion == TRUE){
    data[trim] = data[trim] / data$nword
  }
  return(data)
}

transformed_data = data_transform(chart, eliminate = FALSE, portion = TRUE)
trim = (which(colnames(transformed_data) == "nchar")):length(transformed_data)
#head(transformed_data)
transformed_data[,(length(transformed_data) - 20):length(transformed_data)]

## # A tibble: 51,326 x 21
##    disappointing manager dirty mediocre    poor terrible awful  rude
##            <dbl>   <dbl> <dbl>    <dbl>   <dbl>    <dbl> <dbl> <dbl>
##  1             0       0     0        0 0.00284        0     0     0
##  2             0       0     0        0 0              0     0     0
##  3             0       0     0        0 0              0     0     0
##  4             0       0     0        0 0              0     0     0
##  5             0       0     0        0 0              0     0     0
##  6             0       0     0        0 0              0     0     0
##  7             0       0     0        0 0              0     0     0
##  8             0       0     0        0 0              0     0     0
##  9             0       0     0        0 0              0     0     0
## 10             0       0     0        0 0              0     0     0
## # ... with 51,316 more rows, and 13 more variables: horrible <dbl>,
## #   worst <dbl>, exclam <dbl>, question <dbl>, fivestar <dbl>,
## #   disgust <dbl>, omg <dbl>, wtf <dbl>, hate <dbl>, zero <dbl>,
## #   dots_count <dbl>, capital <dbl>, portion <dbl>
…
